10
4
1
10000
10 1 1 1 1 1 1 1 1 1
1 10 1 1 1 1 1 1 1 1
1 1 10 1 1 1 1 1 1 1
1 1 1 10 1 1 1 1 1 1
1 1 1 1 10 1 1 1 1 1
1 1 1 1 1 10 1 1 1 1
1 1 1 1 1 1 10 1 1 1
1 1 1 1 1 1 1 10 1 1
1 1 1 1 1 1 1 1 10 1
1 1 1 1 1 1 1 1 1 10
4
51
42
10
57
88
87
81
74
98
